^\\MAC\HOME\DESKTOP\IGS\IGS_1\WIN32PROJECT2\WIN32PROJECT2\DEBUG\STDAFX.OBJ|\\MAC\HOME\DESKTOP\IGS\IGS_1\WIN32PROJECT2\WIN32PROJECT2\DEBUG\WIN32PROJECT2.OBJ|\\MAC\HOME\DESKTOP\IGS\IGS_1\WIN32PROJECT2\WIN32PROJECT2\DEBUG\WIN32PROJECT2.RES
\\MAC\HOME\DESKTOP\IGS\IGS_1\WIN32PROJECT2\DEBUG\WIN32PROJECT2.EXE
\\MAC\HOME\DESKTOP\IGS\IGS_1\WIN32PROJECT2\DEBUG\WIN32PROJECT2.ILK
\\MAC\HOME\DESKTOP\IGS\IGS_1\WIN32PROJECT2\DEBUG\WIN32PROJECT2.PDB
