^D:\MIET\3COURSE\ИГС\2018\LAB1\WIN32PROJECT2\WIN32PROJECT2\DEBUG\STDAFX.OBJ|D:\MIET\3COURSE\ИГС\2018\LAB1\WIN32PROJECT2\WIN32PROJECT2\DEBUG\WIN32PROJECT2.OBJ|D:\MIET\3COURSE\ИГС\2018\LAB1\WIN32PROJECT2\WIN32PROJECT2\DEBUG\WIN32PROJECT2.RES
/OUT:"D:\MIET\3COURSE\ИГС\2018\LAB1\WIN32PROJECT2\DEBUG\WIN32PROJECT2.EXE" /INCREMENTAL /NOLOGO KERNEL32.LIB USER32.LIB GDI32.LIB WINSPOOL.LIB COMDLG32.LIB ADVAPI32.LIB SHELL32.LIB OLE32.LIB OLEAUT32.LIB UUID.LIB ODBC32.LIB ODBCCP32.LIB /MANIFEST /MANIFESTUAC:"level='asInvoker' uiAccess='false'" /manifest:embed /DEBUG /PDB:"D:\MIET\3COURSE\ИГС\2018\LAB1\WIN32PROJECT2\DEBUG\WIN32PROJECT2.PDB" /SUBSYSTEM:WINDOWS /TLBID:1 /DYNAMICBASE /NXCOMPAT /IMPLIB:"D:\MIET\3COURSE\ИГС\2018\LAB1\WIN32PROJECT2\DEBUG\WIN32PROJECT2.LIB" /MACHINE:X86 DEBUG\WIN32PROJECT2.RESDEBUG\STDAFX.OBJDEBUG\WIN32PROJECT2.OBJ
^\\MAC\HOME\DESKTOP\IGS\ЛАБЫ\LAB1\WIN32PROJECT2\WIN32PROJECT2\DEBUG\STDAFX.OBJ|\\MAC\HOME\DESKTOP\IGS\ЛАБЫ\LAB1\WIN32PROJECT2\WIN32PROJECT2\DEBUG\WIN32PROJECT2.OBJ|\\MAC\HOME\DESKTOP\IGS\ЛАБЫ\LAB1\WIN32PROJECT2\WIN32PROJECT2\DEBUG\WIN32PROJECT2.RES
/OUT:"\\MAC\HOME\DESKTOP\IGS\ЛАБЫ\LAB1\WIN32PROJECT2\DEBUG\WIN32PROJECT2.EXE" /INCREMENTAL /NOLOGO KERNEL32.LIB USER32.LIB GDI32.LIB WINSPOOL.LIB COMDLG32.LIB ADVAPI32.LIB SHELL32.LIB OLE32.LIB OLEAUT32.LIB UUID.LIB ODBC32.LIB ODBCCP32.LIB /MANIFEST /MANIFESTUAC:"level='asInvoker' uiAccess='false'" /manifest:embed /DEBUG:FASTLINK /PDB:"\\MAC\HOME\DESKTOP\IGS\ЛАБЫ\LAB1\WIN32PROJECT2\DEBUG\WIN32PROJECT2.PDB" /SUBSYSTEM:WINDOWS /TLBID:1 /DYNAMICBASE /NXCOMPAT /IMPLIB:"\\MAC\HOME\DESKTOP\IGS\ЛАБЫ\LAB1\WIN32PROJECT2\DEBUG\WIN32PROJECT2.LIB" /MACHINE:X86 DEBUG\WIN32PROJECT2.RESDEBUG\STDAFX.OBJDEBUG\WIN32PROJECT2.OBJ
^\\MAC\HOME\DESKTOP\IGS\IGS_1\WIN32PROJECT2\WIN32PROJECT2\DEBUG\STDAFX.OBJ|\\MAC\HOME\DESKTOP\IGS\IGS_1\WIN32PROJECT2\WIN32PROJECT2\DEBUG\WIN32PROJECT2.OBJ|\\MAC\HOME\DESKTOP\IGS\IGS_1\WIN32PROJECT2\WIN32PROJECT2\DEBUG\WIN32PROJECT2.RES
/OUT:"\\MAC\HOME\DESKTOP\IGS\IGS_1\WIN32PROJECT2\DEBUG\WIN32PROJECT2.EXE" /INCREMENTAL /NOLOGO KERNEL32.LIB USER32.LIB GDI32.LIB WINSPOOL.LIB COMDLG32.LIB ADVAPI32.LIB SHELL32.LIB OLE32.LIB OLEAUT32.LIB UUID.LIB ODBC32.LIB ODBCCP32.LIB /MANIFEST /MANIFESTUAC:"level='asInvoker' uiAccess='false'" /manifest:embed /DEBUG:FASTLINK /PDB:"\\MAC\HOME\DESKTOP\IGS\IGS_1\WIN32PROJECT2\DEBUG\WIN32PROJECT2.PDB" /SUBSYSTEM:WINDOWS /TLBID:1 /DYNAMICBASE /NXCOMPAT /IMPLIB:"\\MAC\HOME\DESKTOP\IGS\IGS_1\WIN32PROJECT2\DEBUG\WIN32PROJECT2.LIB" /MACHINE:X86 DEBUG\WIN32PROJECT2.RESDEBUG\STDAFX.OBJDEBUG\WIN32PROJECT2.OBJ
