^C:\USERS\ДАНИЛ\DOCUMENTS\VISUAL STUDIO 2015\PROJECTS\WIN32PROJECT1\WIN32PROJECT1\WIN32PROJECT1.RC
/D _UNICODE /D UNICODE /l"0x0409" /nologo /fo"DEBUG\WIN32PROJECT1.RES"   C:\USERS\ДАНИЛ\DOCUMENTS\VISUAL STUDIO 2015\PROJECTS\WIN32PROJECT1\WIN32PROJECT1\WIN32PROJECT1.RC
^\\MAC\HOME\DESKTOP\IGS\ЛАБЫ\LAB1\WIN32PROJECT1\WIN32PROJECT1\WIN32PROJECT1.RC
/D _UNICODE /D UNICODE /l"0x0409" /nologo /fo"DEBUG\WIN32PROJECT1.RES"   \\MAC\HOME\DESKTOP\IGS\ЛАБЫ\LAB1\WIN32PROJECT1\WIN32PROJECT1\WIN32PROJECT1.RC
^\\MAC\HOME\DESKTOP\IGS\IGS_1\WIN32PROJECT1\WIN32PROJECT1\WIN32PROJECT1.RC
/D _UNICODE /D UNICODE /l"0x0409" /nologo /fo"DEBUG\WIN32PROJECT1.RES"   \\MAC\HOME\DESKTOP\IGS\IGS_1\WIN32PROJECT1\WIN32PROJECT1\WIN32PROJECT1.RC
